…
## Arrange the iris data by Sepal.Length and display the first ten rows.

```
## # A tibble: 150 × 5
##    Sepal.Length Sepal.Width Petal.Length Petal.Width Species  
##           <dbl>       <dbl>        <dbl>       <dbl> <fct>    
##  1          7.9         3.8          6.4         2   virginica
##  2          7.7         3.8          6.7         2.2 virginica
##  3          7.7         2.6          6.9         2.3 virginica
##  4          7.7         2.8          6.7         2   virginica
##  5          7.7         3            6.1         2.3 virginica
##  6          7.6         3            6.6         2.1 virginica
##  7          7.4         2.8          6.1         1.9 virginica
##  8          7.3         2.9          6.3         1.8 virginica
##  9          7.2         3.6          6.1         2.5 virginica
## 10          7.2         3.2          6           1.8 virginica
## # … with 140 more rows
```
…
