…
## Arrange and Pivoting
We are pivoting our table so we can get our top 15 overall rated movies from the websites.

```
## # A tibble: 240 × 4
##    FILM                      Ranking Website         value
##    <chr>                       <dbl> <chr>           <dbl>
##  1 Inside Out (2015)            18.4 Fandango_Stars   4.5 
##  2 Inside Out (2015)            18.4 RT_norm          4.9 
##  3 Inside Out (2015)            18.4 Metacritic_norm  4.7 
##  4 Inside Out (2015)            18.4 IMDB_norm        4.3 
##  5 Selma (2014)                 18.2 Fandango_Stars   5   
##  6 Selma (2014)                 18.2 RT_norm          4.95
##  7 Selma (2014)                 18.2 Metacritic_norm  4.45
##  8 Selma (2014)                 18.2 IMDB_norm        3.75
##  9 Mad Max: Fury Road (2015)    18.0 Fandango_Stars   4.5 
## 10 Mad Max: Fury Road (2015)    18.0 RT_norm          4.85
## # … with 230 more rows
```
…
